20190311T123718;9300;;
20190311T130708;7390;;
20190311T133708;19280;;
20190311T140708;34787;;
20190311T143708;34061;;
20190311T150708;32395;;
20190311T153708;29863;;
20190311T160708;27021;;
20190311T163708;24070;;
20190311T170708;23463;;
20190311T173708;19134;;
20190311T180708;16661;;
20190311T183708;16132;;
20190311T190708;16099;;
20190311T193708;15858;;
20190311T203708;15897;;
20190311T210708;15813;;
20190311T213708;15837;;
20190311T220708;15801;;
20190311T223708;15873;;
20190312T000708;16019;;
20190312T003708;16120;;
20190312T013708;15906;;
20190312T023708;15917;;
20190312T030708;16007;;
20190312T033708;16004;;
20190312T040708;16048;;
20190312T053708;16141;;
20190312T060708;15932;;
20190312T070708;15980;;
20190312T073708;16185;;
20190312T080708;15254;;
20190312T083708;14546;;
20190312T090708;13653;;
20190312T100708;12115;;
20190312T103708;16629;;
20190312T120708;29024;;
20190312T123708;28378;;
20190312T130708;28354;;
20190312T133708;28200;;
20190312T140708;28048;;
20190312T143708;22255;;
20190312T150708;18503;;
20190312T153708;13335;;
20190312T160708;9854;;
20190312T163708;8345;;
20190312T170708;7807;;
20190312T173708;29562;;
20190312T180708;29363;;
20190312T183708;29473;;
20190312T190708;29565;;
20190312T193708;29384;;
20190312T200708;29535;;
20190312T220708;29699;;
20190312T230708;29687;;
20190312T233708;29869;;
20190313T000708;29625;;
20190313T003708;29625;;
20190313T010708;29717;;
20190313T020708;29657;;
20190313T030708;29702;;
20190313T033708;29637;;
20190313T040708;29884;;
20190313T043708;29711;;
20190313T050708;29699;;
20190313T053708;29660;;
20190313T060708;29631;;
20190313T063708;29717;;
20190313T070708;29104;;
20190313T073708;29300;;
20190313T080708;27887;;
20190313T083708;26069;;
20190313T090708;21901;;
20190313T093708;18018;;
20190313T100708;13225;;
20190313T103708;10148;;
20190313T110708;6022;;
20190313T113708;2984;;
20190313T120708;291;;
20190313T123708;16111;;
20190313T130708;17051;;
20190313T140708;15903;;
20190313T143708;11707;;
20190313T153708;21553;;
20190313T160708;38113;;
20190313T163708;44183;;
20190313T170708;42648;;
20190314T092059;38708;;
20190314T095059;36626;;
20190314T105059;35055;;
20190314T112059;32377;;
20190314T115059;32115;;
20190314T125059;54525;;
20190314T135059;56051;;
20190314T142059;55120;;
20190314T152059;48801;;
20190314T155059;46533;;
20190314T165059;40395;;
20190314T172059;35236;;
20190314T175059;29768;;
20190314T182059;28574;;
20190314T192059;25795;;
20190314T195059;25891;;
20190314T202059;26051;;
20190314T205059;25956;;
20190314T212059;26016;;
20190314T215059;26161;;
20190314T222059;25920;;
20190314T225059;25879;;
20190314T232059;26036;;
20190314T235059;26036;;
20190315T002059;25897;;
20190315T005059;26132;;
20190315T012059;25974;;
20190315T022059;26048;;
20190315T025059;26150;;
20190315T032059;26072;;
20190315T035059;26039;;
20190315T042059;26060;;
20190315T045059;26150;;
20190315T055059;26048;;
20190315T062059;26129;;
20190315T065059;26141;;
20190315T072059;22898;;
20190315T075059;19985;;
20190315T082059;28066;;
20190315T085059;30107;;
20190315T092059;40190;;
20190315T095059;40636;;
20190315T102059;29928;;
20190315T112059;6968;;
20190315T122059;14195;;
20190315T125059;8530;;
20190315T132059;18357;;
20190315T135059;32654;;
20190315T142059;28396;;
20190315T145059;37239;;
20190315T152059;49538;;
20190315T155059;42975;;
20190315T162059;37393;;
20190315T165059;34296;;
20190315T172059;31335;;
20190315T175059;27212;;
20190315T182059;26935;;
20190315T185059;26762;;
20190315T192059;26584;;
20190315T195059;26667;;
20190315T202059;26632;;
20190315T205059;26658;;
20190315T212059;26608;;
20190315T215059;26849;;
20190315T222059;26926;;
20190315T225059;26754;;
20190315T232059;26774;;
20190315T235059;26810;;
20190316T002059;26804;;
20190316T005059;26837;;
20190316T012059;26941;;
20190316T015059;26822;;
20190316T022059;26861;;
20190316T025059;26926;;
20190316T032059;26917;;
20190316T035059;27051;;
20190316T042059;26902;;
20190316T045059;26878;;
20190316T052059;27033;;
20190316T055059;26938;;
20190316T062059;27018;;
20190316T065059;27054;;
20190316T075059;27152;;
20190316T082059;26733;;
20190316T085059;26691;;
20190316T092059;26878;;
20190316T095059;26629;;
20190316T102059;26941;;
20190316T105059;26507;;
20190316T112059;26905;;
20190316T115059;26325;;
20190316T122059;26138;;
20190316T125059;26887;;
20190316T132059;26783;;
20190316T135059;26194;;
20190316T142059;26352;;
20190316T145059;26703;;
20190316T152059;26765;;
20190316T155059;26721;;
20190316T162059;26715;;
20190316T165059;26938;;
20190316T182059;26646;;
20190316T185059;26298;;
20190316T192059;26388;;
20190316T195059;26581;;
20190316T202059;26611;;
20190316T205059;26655;;
20190316T215059;26661;;
20190316T222059;26703;;
20190316T225059;26557;;
20190316T232059;26706;;
20190316T235059;26908;;
20190317T002059;26715;;
20190317T005059;26813;;
20190317T012059;26783;;
20190317T015059;26798;;
20190317T022059;26765;;
20190317T025059;26724;;
20190317T032059;26709;;
20190317T035059;26929;;
20190317T042059;26745;;
20190317T045059;26822;;
20190317T052059;26837;;
20190317T055059;27024;;
20190317T062059;26822;;
20190317T065059;26718;;
20190317T072059;27054;;
20190317T075059;27072;;
20190317T085059;26435;;
20190317T092059;26881;;
20190317T095059;26551;;
20190317T102059;26664;;
20190317T112059;26518;;
20190317T115059;26203;;
20190317T122059;26426;;
20190317T125059;27000;;
20190317T132059;26664;;
20190317T135059;26343;;
20190317T142059;26557;;
20190317T145059;26730;;
20190317T152059;26911;;
20190317T155059;26905;;
20190317T162059;27161;;
20190317T165059;27331;;
20190317T172059;27268;;
20190317T175059;26914;;
20190317T182059;26504;;
20190317T185059;26432;;
20190317T192059;26483;;
20190317T195059;26504;;
20190317T202059;26411;;
20190317T205059;26545;;
20190317T212059;26730;;
20190317T215059;26587;;
20190317T222059;26691;;
20190317T225059;26548;;
20190317T232059;26545;;
20190317T235059;26575;;
20190318T002059;26682;;
20190318T005059;26504;;
20190318T012059;26572;;
20190318T015059;26548;;
20190318T022059;26426;;
20190318T025059;26542;;
20190318T032059;26837;;
20190318T035059;26756;;
20190318T042059;26783;;
20190318T045059;26804;;
20190318T052059;26742;;
20190318T055059;26980;;
20190318T062059;26635;;
20190318T065059;26751;;
20190318T072059;26789;;
20190318T075059;25995;;
20190318T082059;25409;;
20190318T085059;24727;;
20190318T092059;25069;;
20190318T095059;24757;;
20190318T102059;23683;;
20190318T105059;21529;;
20190318T112059;20943;;
20190318T122059;48336;;
20190318T125059;48887;;
20190318T132059;48435;;
20190318T135059;48256;;
20190318T142059;47560;;
20190318T145059;46334;;
20190318T155059;46712;;
20190318T165059;47027;;
20190318T195059;46233;;
20190318T202059;46206;;
20190318T212059;46275;;
20190318T225059;46358;;
20190319T012059;46245;;
20190319T015059;46188;;
20190319T025059;46254;;
20190319T035059;46147;;
20190319T065059;46048;;
20190319T082059;45959;;
20190319T102059;46236;;
20190319T105059;46034;;
20190319T115059;46010;;
20190319T122059;45700;;
20190319T125059;46420;;
20190319T132059;46129;;
20190319T142059;45938;;
20190319T145059;46242;;
20190319T162059;43713;;
20190319T175059;38304;;
20190319T182059;38271;;
20190319T185059;38319;;
20190319T192059;38506;;
20190319T195059;38241;;
20190319T202059;38488;;
20190319T205059;38336;;
20190319T212059;38369;;
20190319T215059;38438;;
20190319T225059;38399;;
20190319T232059;38473;;
20190320T002059;38557;;
20190320T005059;38792;;
20190320T015059;38818;;
20190320T022059;38732;;
20190320T032102;38500;;
20190320T035102;38610;;
20190320T042102;38426;;
20190320T045102;38613;;
20190320T065102;38619;;
20190320T072102;38307;;
20190320T075102;33689;;
20190320T082102;31246;;
20190320T085102;25694;;
20190320T092102;21413;;
20190320T095102;17474;;
20190320T102102;13275;;
20190320T105102;31782;;
20190320T112102;29393;;
20190320T115102;22969;;
20190320T122102;17548;;
20190320T125102;23118;;
20190320T135102;38101;;
20190320T142102;35257;;
20190320T152102;29050;;
20190320T155102;23391;;
20190320T165102;46623;;
20190320T172102;43162;;
20190320T175102;41672;;
20190320T182102;41532;;
20190320T202102;41413;;
20190320T205102;41526;;
20190320T212102;41541;;
20190320T215102;41651;;
20190320T222102;41984;;
20190320T225102;41749;;
20190320T235102;41948;;
20190321T002102;41993;;
20190321T005102;42026;;
20190321T012102;41877;;
20190321T022102;42082;;
20190321T032102;41928;;
20190321T035102;41886;;
20190321T045102;41916;;
20190321T052102;42023;;
20190321T055102;41913;;
20190321T062102;42088;;
20190321T065102;41880;;
20190321T072102;41907;;
20190321T075102;40446;;
20190321T092102;32320;;
20190321T095102;31017;;
20190321T102102;25549;;
20190321T105102;19470;;
20190321T115102;32469;;
20190321T132102;22103;;
20190321T135102;21945;;
20190321T145102;24329;;
20190321T155102;32832;;
20190321T162102;30999;;
20190321T172102;30374;;
20190321T175102;30452;;
20190321T182102;29863;;
20190321T185102;2976;;
20190321T195102;29848;;
20190321T202102;29985;;
20190321T205102;30053;;
20190321T215102;30080;;
20190321T222102;29922;;
20190321T225102;29988;;
20190321T232102;30000;;
20190321T235102;30071;;
20190322T005102;30244;;
20190322T025102;30357;;
20190322T032102;30136;;
20190322T035102;30145;;
20190322T042102;30157;;
20190322T045102;30181;;
20190322T055102;30130;;
20190322T062102;30220;;
20190322T072102;30086;;
20190322T075102;26417;;
20190322T082102;26706;;
20190322T085102;26188;;
20190322T092102;25340;;
20190322T095102;25328;;
20190322T102102;22948;;
20190322T105102;42338;;
20190322T112102;45227;;
20190322T115102;42671;;
20190322T122102;40071;;
20190322T125102;35358;;
20190322T132102;34192;;
20190322T142102;31636;;
20190322T145102;31996;;
20190322T152102;37613;;
20190322T155102;34707;;
20190322T162102;51208;;
20190322T165102;49592;;
20190322T172102;4396;;
20190322T175102;43537;;
20190322T182102;43243;;
20190322T192102;43412;;
20190322T202102;43186;;
20190322T205102;43198;;
20190322T215102;43436;;
20190322T222102;43513;;
20190322T232102;43377;;
20190323T002102;43362;;
20190323T015102;43507;;
20190323T022102;43454;;
20190323T025102;43380;;
20190323T032102;43362;;
20190323T045102;43377;;
20190323T052102;43454;;
20190323T055102;43448;;
20190323T065102;43558;;
20190323T075102;43296;;
20190323T082102;43171;;
20190323T085102;42975;;
20190323T092102;43085;;
20190323T095102;43264;;
20190323T112102;43219;;
20190323T115102;42874;;
20190323T122102;43112;;
20190323T125102;43436;;
20190323T132102;42749;;
20190323T135102;42802;;
20190323T142102;42420;;
20190323T145102;43133;;
20190323T152102;43317;;
20190323T155102;43350;;
20190323T162102;43635;;
20190323T172102;43299;;
20190323T182102;42996;;
20190323T185102;43037;;
20190323T192102;42880;;
20190323T195102;43103;;
20190323T202102;43377;;
20190323T212102;43198;;
20190323T215102;43558;;
20190323T222102;43220;;
20190323T225102;43359;;
20190323T232102;43564;;
20190323T235102;43421;;
20190324T002102;43403;;
20190324T005102;43290;;
20190324T022102;43234;;
20190324T025102;43362;;
20190324T032102;43302;;
20190324T042102;43421;;
20190324T045102;43261;;
20190324T052102;43326;;
20190324T062102;43490;;
20190324T065102;43618;;
20190324T082102;43231;;
20190324T092102;43014;;
20190324T095102;42895;;
20190324T102102;43180;;
20190324T105102;43002;;
20190324T112102;43177;;
20190324T115102;43165;;
20190324T122102;42993;;
20190324T125102;43249;;
20190324T132102;42710;;
20190324T135102;42859;;
20190324T142102;42374;;
20190324T145102;43195;;
20190324T152102;43570;;
20190324T155102;43585;;
20190324T162102;44165;;
20190324T165102;43823;;
20190324T172102;43603;;
20190324T175102;43543;;
20190324T182102;43139;;
20190324T185102;43067;;
20190324T202102;43264;;
20190324T215102;43296;;
20190324T225102;43406;;
20190324T232102;43326;;
20190324T235102;43299;;
20190325T002102;43451;;
20190325T012102;43570;;
20190325T022102;43296;;
20190325T025102;43445;;
20190325T032102;43320;;
20190325T042102;43540;;
20190325T045102;43597;;
20190325T055102;43243;;
20190325T062102;43338;;
20190325T072102;43258;43280.75824;269.2036545
20190325T075102;41951;;
20190325T085102;37572;;
20190325T092102;37834;;
20190325T095102;36676;;
20190325T102102;35736;;
20190325T105102;33266;;
20190325T112102;32695;;
20190325T115102;30648;;
20190325T125102;27000;;
20190325T135102;25742;;
20190325T142102;24031;;
20190325T145102;23478;;
20190325T152102;23564;;
20190325T155102;20000;;
20190325T165102;44085;;
20190325T172102;42261;;
20190325T175102;42148;;
20190325T182102;41847;;
20190325T185102;42133;;
20190325T192102;42133;;
20190325T195102;42273;;
20190325T202102;41969;;
20190325T205102;42186;;
20190325T212102;42106;;
20190325T215102;42059;;
20190325T222102;41957;;
20190325T225102;42029;;
20190325T232102;42061;;
20190326T012102;42127;;
20190326T015102;42332;;
20190326T022102;42374;;
20190326T025102;42121;;
20190326T042102;42035;;
20190326T045102;42050;;
20190326T052102;42169;;
20190326T062102;42127;;
20190326T065102;42056;;
20190326T072102;42273;;
20190326T082102;41904;;
20190326T105102;32484;;
20190326T112102;30044;;
20190326T115102;28827;;
20190326T122102;26783;;
20190326T125102;25364;;
20190326T142102;33415;;
20190326T145102;45989;;
20190326T155102;45623;;
20190326T165102;39592;;
20190326T175102;35614;;
20190326T182102;33582;;
20190326T185102;33734;;
20190326T192102;33281;;
20190326T195102;33305;;
20190326T205102;33275;;
20190326T212102;33403;;
20190326T222102;33261;;
20190326T232102;33213;;
20190326T235102;33356;;
20190327T002102;33278;;
20190327T005102;33368;;
20190327T012102;33400;;
20190327T022102;33603;;
20190327T025102;33582;;
20190327T032102;33796;;
20190327T035102;33665;;
20190327T042102;33817;;
20190327T055102;33624;;
20190327T062102;33731;;
20190327T065102;33737;;
20190327T072102;33213;;
20190327T085102;23567;;
20190327T092102;18911;;
20190327T095102;16257;;
20190327T102102;28557;;
20190327T105102;32115;;
20190327T115102;21523;;
20190327T122102;19390;;
20190327T132102;41142;;
20190327T135102;41100;;
20190327T152102;35816;;
20190327T155102;32558;;
20190327T162102;31249;;
20190327T165102;27417;;
20190327T172102;23781;;
20190327T175102;20883;;
20190327T182102;19369;;
20190327T192102;18408;;
20190327T195102;18158;;
20190327T212102;18586;;
20190327T215102;18423;;
20190327T222102;18458;;
20190327T225102;18470;;
20190327T232102;18562;;
20190327T235102;18488;;
20190328T002102;18557;;
20190328T005102;18628;;
20190328T022102;18783;;
20190328T032102;18684;;
20190328T035102;18839;;
20190328T042102;18762;;
20190328T045102;18655;;
20190328T052102;18696;;
20190328T055102;18869;;
20190328T062102;18646;;
20190328T072102;18729;;
20190328T082102;15584;;
20190328T085102;15546;;
20190328T095102;14343;;
20190328T102102;27798;;
20190328T105102;39574;;
20190328T115102;31859;;
20190328T125102;30940;;
20190328T145102;43133;;
20190328T152102;37134;;
20190328T155102;35477;;
20190328T162102;48583;;
20190328T165102;52600;;
20190328T172102;52654;;
20190328T182102;51815;;
20190328T185102;51963;;
20190328T192102;52151;;
20190328T195102;52008;;
20190328T205102;52160;;
20190328T212102;52008;;
20190328T215102;52002;;
20190328T225102;52062;;
20190328T232102;52097;;
20190328T235102;52050;;
20190329T002102;52169;;
20190329T005102;52219;;
20190329T012102;52097;;
20190329T015102;52160;;
20190329T025102;52163;;
20190329T032102;52130;;
20190329T035102;52160;;
20190329T042102;52109;;
20190329T045102;52308;;
20190329T052102;52249;;
20190329T055102;52088;;
20190329T062102;52163;;
20190329T065102;52401;;
20190329T072102;51996;;
20190329T082102;47902;;
20190329T092102;40645;;
20190329T095102;45385;;
20190329T102102;47560;;
20190329T105102;42716;;
20190329T112102;39568;;
20190329T115102;36114;;
20190329T122102;43912;;
20190329T125102;56028;;
20190329T132102;55736;;
20190329T135102;56111;;
20190329T145102;54814;;
20190329T152102;52389;;
20190329T162102;49851;;
20190329T185102;41526;;
20190329T195102;41812;;
20190329T202102;41582;;
20190329T212102;41716;;
20190329T215102;41832;;
20190329T225102;41865;;
20190330T005102;41728;;
20190330T042102;42085;;
20190330T052102;41856;;
20190330T055102;41812;;
20190330T062102;42056;;
20190330T065102;42020;;
20190330T072102;41910;;
20190330T075102;41657;;
20190330T082102;41463;;
20190330T092102;41541;;
20190330T095102;41312;;
20190330T102102;41579;;
20190330T105102;41303;;
20190330T115102;41472;;
20190330T125102;41562;;
20190330T132102;41231;;
20190330T135102;41458;;
20190330T142102;41258;;
20190330T145102;41981;;
20190330T152102;42061;;
20190330T155102;42234;;
20190330T162102;42243;;
20190330T165102;42430;;
20190330T172102;42633;;
20190330T182102;41514;;
20190330T202102;41487;;
20190330T222102;41660;;
20190331T002102;41877;;
20190331T005102;41716;;
20190331T032102;41749;;
20190331T035102;41803;;
20190331T042102;41862;;
20190331T045102;41794;;
20190331T052102;41687;;
20190331T062102;41478;;
20190331T075102;41496;;
20190331T082102;41579;;
20190331T095102;41600;;
20190331T102102;41285;;
20190331T115102;41356;;
20190331T125102;41374;;
20190331T132102;41181;;
20190331T142102;41222;;
20190331T145102;41377;;
20190331T152102;41300;;
20190331T155102;41621;;
20190331T162102;41910;;
20190331T165102;41579;;
20190331T172102;41931;;
20190331T175102;41597;;
20190331T182102;41377;;
20190331T195102;41392;;
20190331T212102;41401;;
20190331T215102;41413;;
20190331T222102;41336;;
20190331T225102;41535;;
20190331T232102;41350;;
20190331T235102;41591;;
20190401T005102;41520;;
20190401T012102;41499;;
20190401T015102;41562;;
20190401T022102;41645;;
20190401T032102;41526;;
20190401T035102;41675;;
20190401T045102;41687;;
20190401T052102;41803;;
20190401T062102;41767;;
20190401T065102;41749;;
20190401T082102;32731;;
20190401T085102;31431;;
20190401T095102;26789;;
20190401T102102;22939;;
20190401T105102;20580;;
20190401T112102;43391;;
20190401T115102;40089;;
20190401T122102;39024;;
20190401T125102;38851;;
20190401T132102;37810;;
20190401T145102;33490;;
20190401T152102;32323;;
20190401T162102;29690;;
20190401T165102;24730;;
20190401T172102;24921;;
20190401T175102;25150;;
20190401T182102;29135;;
20190401T185102;24543;;
20190401T192102;23930;;
20190401T195102;24150;;
20190401T202102;24201;;
20190401T212102;24299;;
20190401T215102;24341;;
20190401T222102;24397;;
20190401T232102;24373;;
20190401T235102;24329;;
20190402T002102;24558;;
20190402T022104;24454;;
20190402T032104;24573;;
20190402T035104;24320;;
20190402T042104;24433;;
20190402T045104;24341;;
20190402T052104;24623;;
20190402T065104;24468;;
20190402T072104;24501;;
20190402T082104;19425;;
20190402T085104;16090;;
20190402T095104;19741;;
20190402T102104;36792;;
20190402T105104;36444;;
20190402T112104;33796;;
20190402T115104;32302;;
20190402T122104;31517;;
20190402T125104;41574;;
20190402T142104;47578;;
20190402T145104;45986;;
20190402T165104;37843;;
20190402T172104;37161;;
20190402T182104;35266;;
20190402T185104;35010;;
20190402T192104;35233;;
20190402T195104;35212;;
20190402T202104;35340;;
20190402T205104;35251;;
20190402T215104;35230;;
20190402T222104;35334;;
20190402T225104;35206;;
20190402T232104;35364;;
20190402T235104;35186;;
20190403T002104;59982;;
20190403T005104;55757;;
20190403T012104;45986;;
20190403T025104;35013;;
20190403T032104;33918;;
20190403T035104;33100;;
20190403T042104;32308;;
20190403T045104;32877;;
20190403T052104;33266;;
20190403T055104;33445;;
20190403T062104;33960;;
20190403T065104;34448;;
20190403T072104;34593;;
20190403T075104;34335;;
20190403T082104;33701;;
20190403T085104;32142;;
20190403T095104;21978;;
20190403T102104;18509;;
20190403T105104;29669;;
20190403T112104;36757;;
20190403T115104;33969;;
20190403T122104;30241;;
20190403T132104;25787;;
20190403T135104;25757;;
20190403T142104;26858;;
20190403T145104;42267;;
20190403T152104;41056;;
20190403T155104;38720;;
20190403T162104;29244;;
20190403T172104;28089;;
20190403T175104;28057;;
20190403T182104;28015;;
20190403T195104;28152;;
20190403T205104;29187;;
20190403T212104;28253;;
20190403T225104;28051;;
20190403T235104;28384;;
20190404T002104;28375;;
20190404T005104;28176;;
20190404T012104;28220;;
20190404T015104;28387;;
20190404T022104;28396;;
20190404T025104;28345;;
20190404T032104;28476;;
20190404T035104;28616;;
20190404T042104;28387;;
20190404T052104;28506;;
20190404T055104;28518;;
20190404T062104;28497;;
20190404T065104;28655;;
20190404T072104;28384;;
20190404T085104;24400;;
20190404T092104;23496;;
20190404T095104;21541;;
20190404T102104;17402;;
20190404T105104;38027;;
20190404T122104;34757;;
20190404T125104;31023;;
20190404T132104;30770;;
20190404T135104;30684;;
20190404T142104;28140;;
20190404T145104;24341;;
20190404T152104;27054;;
20190404T155104;47979;;
20190404T172104;43799;;
20190404T175104;43472;;
20190404T182104;43136;;
20190404T185104;43142;;
20190404T192104;42308;;
20190404T195104;42582;;
20190404T202104;43127;;
20190404T205104;43088;;
20190404T212104;42942;;
20190404T215104;43049;;
20190404T222104;42865;;
20190404T225104;42978;;
20190404T232104;42996;;
20190404T235104;43222;;
20190405T002104;43136;;
20190405T005104;43118;;
20190405T015104;43225;;
20190405T022104;43115;;
20190405T025104;43002;;
20190405T032104;43094;;
20190405T035104;43234;;
20190405T045104;43153;;
20190405T052104;43269;;
20190405T055104;43356;;
20190405T065104;43106;;
20190405T075104;40476;;
20190405T082104;37851;;
20190405T092104;35730;;
20190405T095104;32892;;
20190405T102104;28518;;
20190405T105104;26539;;
20190405T132104;43380;;
20190405T135104;43499;;
20190405T145104;41095;;
20190405T152104;38720;;
20190405T155104;38345;;
20190405T162104;45906;;
20190405T172104;45974;;
20190405T175104;44406;;
20190405T182104;43317;;
20190405T185104;43302;;
20190405T192104;43353;;
20190405T205104;43043;;
20190405T215104;47926;;
20190405T225104;47471;;
20190405T235104;53344;;
20190406T005104;45192;;
20190406T025104;43255;;
20190406T032104;43061;;
20190406T045104;41975;;
20190406T052104;40803;;
20190406T072104;44245;;
20190406T075104;43954;;
20190406T082104;43356;;
20190406T092104;43400;;
20190406T095104;43195;;
20190406T102104;43150;;
20190406T112104;42850;;
20190406T115104;42927;;
20190406T122104;42906;;
20190406T125104;42924;;
20190406T135104;42963;;
20190406T142104;42981;;
20190406T145104;42948;;
20190406T152104;43130;;
20190406T162104;43335;;
20190406T172104;43150;;
20190406T182104;43356;;
20190406T192104;43219;;
20190406T195104;43168;;
20190406T202104;43475;;
20190406T212104;43490;;
20190406T215104;43621;;
20190406T225104;43650;;
20190406T232104;43466;;
20190407T005104;43707;;
20190407T012104;43472;;
20190407T015104;43659;;
20190407T025104;43505;;
20190407T032104;43502;;
20190407T035104;43618;;
20190407T042104;43903;;
20190407T052104;43713;;
20190407T062104;43618;;
20190407T072104;43781;;
20190407T095104;43109;;
20190407T115104;43719;;
20190407T122104;43543;;
20190407T125104;43603;;
20190407T132104;43475;;
20190407T135104;42936;;
20190407T142104;43020;;
20190407T155104;43963;;
20190407T182104;43204;;
20190407T185104;43255;;
20190407T192104;43049;;
20190407T205104;43585;;
20190407T215104;43454;;
20190407T222104;43621;;
20190407T225104;43534;;
20190407T235104;43528;;
20190408T002104;43749;;
20190408T012104;43808;;
20190408T015104;43656;;
20190408T032104;43808;;
20190408T042104;43808;;
20190408T045104;43543;;
20190408T052104;43704;;
20190408T065104;43528;;
20190408T082104;38021;;
20190408T085104;30937;;
20190408T092104;50250;;
20190408T102104;40797;;
20190408T105104;36438;;
20190408T112104;32695;;
20190408T125104;43085;;
20190408T132104;38467;;
20190408T135104;34147;;
20190408T142104;43507;;
20190408T145104;53302;;
20190408T152104;47322;;
20190408T155104;40050;;
20190408T162104;34097;;
20190408T165104;29050;;
20190408T172104;25284;;
20190408T175104;24840;;
20190408T182104;22207;;
20190408T185104;21722;;
20190408T192104;21666;;
20190408T195104;21597;;
20190408T205104;21993;;
20190408T212104;21919;;
20190408T222104;22121;;
20190408T225104;22166;;
20190408T232104;22142;;
20190408T235104;22246;;
20190409T002104;21999;;
20190409T005104;21954;;
20190409T012104;22076;;
20190409T015104;22017;;
20190409T022104;21934;;
20190409T025104;22109;;
20190409T032104;22210;;
20190409T035104;21996;;
20190409T042104;22320;;
20190409T052104;22133;;
20190409T062104;22112;;
20190409T065104;22186;;
20190409T072104;22130;;
20190409T075104;21478;;
20190409T082104;18440;;
20190409T085104;14165;;
20190409T092104;10952;;
20190409T095104;31550;;
20190409T102104;36349;;
20190409T105104;33802;;
20190409T112104;31133;;
20190409T115104;29089;;
20190409T125104;25534;;
20190409T132104;25721;;
20190409T135104;25150;;
20190409T142104;39229;;
20190409T152104;45569;;
20190409T162104;42725;;
20190409T165104;52291;;
20190409T172104;51044;;
20190409T175104;51642;;
20190409T185104;32192;;
20190409T192104;41984;;
20190409T195104;56849;;
20190409T205104;52746;;
20190409T212104;52231;;
20190409T215104;52639;;
20190409T222104;51359;;
20190409T225104;51719;;
20190409T232104;51184;;
20190410T002104;51440;;
20190410T012104;51627;;
20190410T022104;51440;;
20190410T025104;51580;;
20190410T032104;50598;;
20190410T035104;50726;;
20190410T042104;51368;;
20190410T045104;50961;;
20190410T052104;50654;;
20190410T055104;50660;;
20190410T062104;50848;;
20190410T065104;45073;;
20190410T072104;38313;;
20190410T082104;41794;;
20190410T085104;45590;;
20190410T092104;36786;;
20190410T095104;30133;;
20190410T105104;15168;;
20190410T115104;30645;;
20190410T122104;23127;;
20190410T135104;33377;;
20190410T142104;32401;;
20190410T145104;27875;;
20190410T152104;46209;;
20190410T155104;43088;;
20190410T162104;35668;;
20190410T165104;28842;;
20190410T172104;21999;;
20190410T175104;20961;;
20190410T182104;20842;;
20190410T185104;20684;;
20190410T195104;20776;;
